<?xml version="1.0" encoding="UTF-8"?>
<svg width="180px" height="61px" viewBox="0 0 180 61" version="1.1" xmlns="http://www.w3.org/2000/svg" xmlns:xlink="http://www.w3.org/1999/xlink">
    <!-- Generator: Sketch 54.1 (76490) - https://sketchapp.com -->
    <title>Group</title>
    <desc>Created with Sketch.</desc>
    <g id="Page-1" stroke="none" stroke-width="1" fill="none" fill-rule="evenodd">
        <g id="Content-Types" transform="translate(-27.000000, -16.000000)" fill="#FFFFFF" fill-rule="nonzero">
            <g id="Group" transform="translate(27.000000, 16.000000)">
                <g id="Group-2">
                    <path d="M84.5395508,35.0795898 C84.4012037,36.9920343 83.6952375,38.4975531 82.4216309,39.5961914 C81.1480242,40.6948297 79.4695742,41.2441406 77.3862305,41.2441406 C75.1075732,41.2441406 73.3151921,40.4771398 72.0090332,38.9431152 C70.7028743,37.4090906 70.0498047,35.3033988 70.0498047,32.6259766 L70.0498047,31.5395508 C70.0498047,29.8305579 70.3509084,28.3250391 70.953125,27.0229492 C71.5553416,25.7208594 72.4159286,24.7219273 73.5349121,24.026123 C74.6538956,23.3303188 75.9539314,22.9824219 77.4350586,22.9824219 C79.4858501,22.9824219 81.1378518,23.5317328 82.3911133,24.6303711 C83.6443748,25.7290094 84.3686514,27.2711489 84.5639648,29.2568359 L80.9018555,29.2568359 C80.8123368,28.1093693 80.4929227,27.277265 79.9436035,26.760498 C79.3942844,26.2437311 78.5581111,25.9853516 77.4350586,25.9853516 C76.2143494,25.9853516 75.3008657,26.4227658 74.6945801,27.2976074 C74.0882945,28.172449 73.7770183,29.5294504 73.7607422,31.3686523 L73.7607422,32.7114258 C73.7607422,34.6320083 74.0516735,36.0358029 74.6335449,36.9228516 C75.2154163,37.8099003 76.132969,38.253418 77.3862305,38.253418 C78.517421,38.253418 79.3617322,37.9950384 79.9191895,37.4782715 C80.4766467,36.9615046 80.7960608,36.161952 80.8774414,35.0795898 L84.5395508,35.0795898 Z M87.1943359,41 L87.1943359,23.2265625 L93.4199219,23.2265625 C95.5765082,23.2265625 97.212234,23.6395629 98.3271484,24.4655762 C99.4420629,25.2915894 99.9995117,26.5021079 99.9995117,28.097168 C99.9995117,28.9679406 99.7757184,29.7349413 99.328125,30.3981934 C98.8805316,31.0614454 98.2579792,31.5476873 97.4604492,31.8569336 C98.3719121,32.0847993 99.0900853,32.5445929 99.6149902,33.2363281 C100.139895,33.9280634 100.402344,34.7744091 100.402344,35.7753906 C100.402344,37.4843835 99.8571018,38.7783159 98.7666016,39.6572266 C97.6761013,40.5361372 96.1217549,40.9837239 94.1035156,41 L87.1943359,41 Z M90.8564453,33.2607422 L90.8564453,38.0581055 L93.9936523,38.0581055 C94.8562869,38.0581055 95.5297014,37.8526225 96.013916,37.4416504 C96.4981307,37.0306783 96.7402344,36.463057 96.7402344,35.7387695 C96.7402344,34.1111572 95.8979576,33.2851564 94.2133789,33.2607422 L90.8564453,33.2607422 Z M90.8564453,30.6728516 L93.5664062,30.6728516 C95.4137462,30.6402993 96.3374023,29.9038158 96.3374023,28.4633789 C96.3374023,27.6577108 96.1034366,27.0778826 95.635498,26.723877 C95.1675595,26.3698713 94.4290415,26.1928711 93.4199219,26.1928711 L90.8564453,26.1928711 L90.8564453,30.6728516 Z M107.061035,38.0581055 L114.836914,38.0581055 L114.836914,41 L103.398926,41 L103.398926,23.2265625 L107.061035,23.2265625 L107.061035,38.0581055 Z M131.004883,32.5161133 C131.004883,34.2657965 130.695641,35.7997981 130.077148,37.1181641 C129.458656,38.43653 128.573655,39.4537725 127.422119,40.1699219 C126.270583,40.8860713 124.950203,41.2441406 123.460938,41.2441406 C121.987948,41.2441406 120.673671,40.8901403 119.518066,40.1821289 C118.362462,39.4741176 117.467288,38.4629786 116.83252,37.1486816 C116.197751,35.8343847 115.876302,34.3227625 115.868164,32.6137695 L115.868164,31.7348633 C115.868164,29.9851801 116.183509,28.445075 116.814209,27.114502 C117.444909,25.7839289 118.336013,24.7626175 119.487549,24.0505371 C120.639085,23.3384567 121.955396,22.9824219 123.436523,22.9824219 C124.917651,22.9824219 126.233962,23.3384567 127.385498,24.0505371 C128.537034,24.7626175 129.428138,25.7839289 130.058838,27.114502 C130.689538,28.445075 131.004883,29.9811111 131.004883,31.7226562 L131.004883,32.5161133 Z M127.293945,31.7104492 C127.293945,29.8468331 126.96029,28.4308317 126.292969,27.4624023 C125.625648,26.493973 124.673509,26.0097656 123.436523,26.0097656 C122.207676,26.0097656 121.259606,26.4878696 120.592285,27.4440918 C119.924964,28.400314 119.58724,29.8020741 119.579102,31.6494141 L119.579102,32.5161133 C119.579102,34.330901 119.912757,35.7387645 120.580078,36.7397461 C121.247399,37.7407277 122.207676,38.2412109 123.460938,38.2412109 C124.689785,38.2412109 125.633786,37.759038 126.292969,36.7946777 C126.952152,35.8303174 127.285807,34.4244884 127.293945,32.5771484 L127.293945,31.7104492 Z M147.868652,35.0795898 C147.730305,36.9920343 147.024339,38.4975531 145.750732,39.5961914 C144.477126,40.6948297 142.798676,41.2441406 140.715332,41.2441406 C138.436675,41.2441406 136.644294,40.4771398 135.338135,38.9431152 C134.031976,37.4090906 133.378906,35.3033988 133.378906,32.6259766 L133.378906,31.5395508 C133.378906,29.8305579 133.68001,28.3250391 134.282227,27.0229492 C134.884443,25.7208594 135.74503,24.7219273 136.864014,24.026123 C137.982997,23.3303188 139.283033,22.9824219 140.76416,22.9824219 C142.814952,22.9824219 144.466953,23.5317328 145.720215,24.6303711 C146.973476,25.7290094 147.697753,27.2711489 147.893066,29.2568359 L144.230957,29.2568359 C144.141438,28.1093693 143.822024,27.277265 143.272705,26.760498 C142.723386,26.2437311 141.887213,25.9853516 140.76416,25.9853516 C139.543451,25.9853516 138.629967,26.4227658 138.023682,27.2976074 C137.417396,28.172449 137.10612,29.5294504 137.089844,31.3686523 L137.089844,32.7114258 C137.089844,34.6320083 137.380775,36.0358029 137.962646,36.9228516 C138.544518,37.8099003 139.462071,38.253418 140.715332,38.253418 C141.846523,38.253418 142.690834,37.9950384 143.248291,37.4782715 C143.805748,36.9615046 144.125162,36.161952 144.206543,35.0795898 L147.868652,35.0795898 Z M156.089844,33.8710938 L154.185547,35.921875 L154.185547,41 L150.523438,41 L150.523438,23.2265625 L154.185547,23.2265625 L154.185547,31.2832031 L155.796875,29.0737305 L160.325684,23.2265625 L164.830078,23.2265625 L158.519043,31.1245117 L165.013184,41 L160.655273,41 L156.089844,33.8710938 Z M175.858887,36.3369141 C175.858887,35.6451788 175.614749,35.1141783 175.126465,34.7438965 C174.638181,34.3736147 173.759284,33.9829936 172.489746,33.5720215 C171.220208,33.1610494 170.215173,32.7561869 169.474609,32.3574219 C167.45637,31.2669216 166.447266,29.7980236 166.447266,27.9506836 C166.447266,26.9903923 166.717852,26.1338742 167.259033,25.3811035 C167.800214,24.6283328 168.577388,24.0403667 169.590576,23.6171875 C170.603765,23.1940083 171.741042,22.9824219 173.002441,22.9824219 C174.271979,22.9824219 175.403153,23.2123187 176.395996,23.6721191 C177.38884,24.1319196 178.159909,24.7809203 178.709229,25.6191406 C179.258548,26.457361 179.533203,27.4094999 179.533203,28.4755859 L175.871094,28.4755859 C175.871094,27.6617798 175.614749,27.029055 175.102051,26.5773926 C174.589353,26.1257302 173.869145,25.8999023 172.941406,25.8999023 C172.046219,25.8999023 171.350426,26.0891094 170.854004,26.4675293 C170.357582,26.8459492 170.109375,27.3443979 170.109375,27.9628906 C170.109375,28.540693 170.400306,29.0249004 170.982178,29.4155273 C171.564049,29.8061543 172.420567,30.1723616 173.551758,30.5141602 C175.635102,31.1407909 177.152827,31.9179641 178.10498,32.8457031 C179.057134,33.7734421 179.533203,34.9290295 179.533203,36.3125 C179.533203,37.8505936 178.95134,39.0570432 177.787598,39.9318848 C176.623855,40.8067264 175.057302,41.2441406 173.087891,41.2441406 C171.720696,41.2441406 170.475592,40.993899 169.352539,40.4934082 C168.229487,39.9929174 167.372968,39.307296 166.782959,38.4365234 C166.19295,37.5657509 165.897949,36.5566464 165.897949,35.4091797 L169.572266,35.4091797 C169.572266,37.3704525 170.744129,38.3510742 173.087891,38.3510742 C173.958663,38.3510742 174.638181,38.174074 175.126465,37.8200684 C175.614749,37.4660627 175.858887,36.9716829 175.858887,36.3369141 Z" id="CBLOCKS"></path>
                    <g id="3d">
                        <path d="M43.6359465,37.1139776 L41.4737052,38.2976108 C41.0296778,38.5411471 40.8693877,39.0934778 41.1153254,39.531843 C41.2827926,39.8311798 41.5961956,40 41.9196466,40 C42.0698885,40 42.2230014,39.9635878 42.3641524,39.8865074 L44.5263937,38.7024012 C44.9699426,38.4593379 45.1307112,37.9065342 44.8847735,37.4681691 C44.638836,37.029331 44.0794953,36.8709142 43.6359465,37.1139776 L43.6359465,37.1139776 Z" id="Path"></path>
                        <path d="M43.6360189,34.1139776 L41.4738924,35.2976108 C41.0298885,35.5406742 40.8691285,36.0934778 41.1155315,36.5323159 C41.2829898,36.8311798 41.5963762,37 41.91981,37 C42.070044,37 42.2231488,36.9635878 42.3638139,36.8865074 L44.5264188,35.7024012 C44.9699442,35.4593379 45.1307043,34.9070072 44.8847797,34.4681691 C44.6388552,34.029331 44.0795442,33.8709142 43.6360189,34.1139776 L43.6360189,34.1139776 Z" id="Path"></path>
                        <path d="M57.8663606,45.0132827 C57.9520388,44.8736648 58,44.7093811 58,44.5450974 L58,36.6841431 C58,36.190361 57.5995476,35.7905884 57.1055011,35.7905884 C56.6119201,35.7905884 56.2114678,36.190361 56.2114678,36.6841431 L56.2114678,43.1684646 L47.6143134,39.3359527 L47.6143134,22.7316589 L56.2114678,17.9711533 L56.2114678,32.7929917 C56.2114678,33.2867737 56.6119201,33.6865464 57.1055011,33.6865464 C57.5995476,33.6865464 58,33.2867737 58,32.7929917 L58,16.4544373 C58,16.135643 57.8183994,15.8275528 57.539014,15.6730423 L29.4333084,0.110298157 C29.1664954,-0.0367660522 28.8335611,-0.0367660522 28.566748,0.110298157 L0.461042495,15.6730423 C0.177000612,15.8298798 -0.00366861339,16.1412278 5.6525276e-05,16.4651413 L5.6525276e-05,44.5450974 C5.6525276e-05,44.864357 0.181191363,45.1719819 0.461042495,45.3269577 L12.8443347,52.1840591 C13.2764507,52.4228057 13.820321,52.2668991 14.0596611,51.8354797 C14.2990013,51.403595 14.1425455,50.8595505 13.710895,50.6208038 L2.89495488,44.6316604 L11.236006,40.9136352 L28.1057622,50.2545395 L28.1057622,58.5911255 L17.2567614,52.5842971 C16.8251109,52.3450852 16.2807751,52.5009917 16.0414349,52.9328765 C15.8020948,53.3642959 15.9585506,53.9083404 16.3902011,54.1475525 L28.566748,60.8897018 C28.8321642,61.0367661 29.1678923,61.0367661 29.4333084,60.8897018 L42.2035495,53.8180542 C42.6356656,53.5788422 42.7916556,53.0352631 42.5523155,52.6033783 C42.3134411,52.1719589 41.7691052,52.0155869 41.3369891,52.2547988 L29.8938287,58.5911255 L29.8938287,50.2545395 L46.7635848,40.9136352 L55.1046359,44.6316604 L44.8805272,50.293167 C44.4484111,50.5323791 44.2924209,51.0759582 44.5317611,51.507843 C44.6947359,51.8024368 44.9997317,51.9685821 45.3145059,51.9685821 C45.4607176,51.9685821 45.6097232,51.9322815 45.7470876,51.8564224 L57.539014,45.3269577 C57.6712565,45.253891 57.7872015,45.1417312 57.8663606,45.0132827 L57.8663606,45.0132827 Z M28.9997955,13.4144898 L44.8754051,22.2052994 L28.9997955,30.9956436 L13.1246513,22.2052994 L28.9997955,13.4144898 Z M46.7202801,21.1837617 L29.8938287,11.8665924 L29.8938287,2.40840918 L55.2606261,16.4544373 L46.7202801,21.1837617 Z M28.1057622,11.8665924 L11.2797764,21.1837617 L2.73896467,16.4544373 L28.1057622,2.40840918 L28.1057622,11.8665924 Z M1.78812309,17.9711533 L10.3852775,22.7316589 L10.3852775,39.3359527 L1.78812309,43.1684646 L1.78812309,17.9711533 Z M12.1738097,23.7220154 L18.6634669,27.3153152 L28.1057622,32.5440063 L28.1057622,48.2114639 L12.1738097,39.3894729 L12.1738097,23.7220154 Z M29.8938287,32.5440063 L45.8262468,23.7220154 L45.8262468,39.3894729 L29.8938287,48.2114639 L29.8938287,32.5440063 Z" id="Shape"></path>
                    </g>
                </g>
            </g>
        </g>
    </g>
</svg>